Projeto/testbench.vcd
$date
	Tue Jun 06 20:47:38 2023
$end
$version
	Icarus Verilog
$end
$timescale
	1s
$end
$scope module caminho_tb $end
$var wire 32 ! reg9 [31:0] $end
$var wire 32 " reg8 [31:0] $end
$var wire 32 # reg7 [31:0] $end
$var wire 32 $ reg6 [31:0] $end
$var wire 32 % reg5 [31:0] $end
$var wire 32 & reg4 [31:0] $end
$var wire 32 ' reg31 [31:0] $end
$var wire 32 ( reg30 [31:0] $end
$var wire 32 ) reg3 [31:0] $end
$var wire 32 * reg29 [31:0] $end
$var wire 32 + reg28 [31:0] $end
$var wire 32 , reg27 [31:0] $end
$var wire 32 - reg26 [31:0] $end
$var wire 32 . reg25 [31:0] $end
$var wire 32 / reg24 [31:0] $end
$var wire 32 0 reg23 [31:0] $end
$var wire 32 1 reg22 [31:0] $end
$var wire 32 2 reg21 [31:0] $end
$var wire 32 3 reg20 [31:0] $end
$var wire 32 4 reg2 [31:0] $end
$var wire 32 5 reg19 [31:0] $end
$var wire 32 6 reg18 [31:0] $end
$var wire 32 7 reg17 [31:0] $end
$var wire 32 8 reg16 [31:0] $end
$var wire 32 9 reg15 [31:0] $end
$var wire 32 : reg14 [31:0] $end
$var wire 32 ; reg13 [31:0] $end
$var wire 32 < reg12 [31:0] $end
$var wire 32 = reg11 [31:0] $end
$var wire 32 > reg10 [31:0] $end
$var wire 32 ? reg1 [31:0] $end
$var wire 32 @ reg0 [31:0] $end
$var wire 32 A mem9 [31:0] $end
$var wire 32 B mem8 [31:0] $end
$var wire 32 C mem7 [31:0] $end
$var wire 32 D mem6 [31:0] $end
$var wire 32 E mem5 [31:0] $end
$var wire 32 F mem4 [31:0] $end
$var wire 32 G mem31 [31:0] $end
$var wire 32 H mem30 [31:0] $end
$var wire 32 I mem3 [31:0] $end
$var wire 32 J mem29 [31:0] $end
$var wire 32 K mem28 [31:0] $end
$var wire 32 L mem27 [31:0] $end
$var wire 32 M mem26 [31:0] $end
$var wire 32 N mem25 [31:0] $end
$var wire 32 O mem24 [31:0] $end
$var wire 32 P mem23 [31:0] $end
$var wire 32 Q mem22 [31:0] $end
$var wire 32 R mem21 [31:0] $end
$var wire 32 S mem20 [31:0] $end
$var wire 32 T mem2 [31:0] $end
$var wire 32 U mem19 [31:0] $end
$var wire 32 V mem18 [31:0] $end
$var wire 32 W mem17 [31:0] $end
$var wire 32 X mem16 [31:0] $end
$var wire 32 Y mem15 [31:0] $end
$var wire 32 Z mem14 [31:0] $end
$var wire 32 [ mem13 [31:0] $end
$var wire 32 \ mem12 [31:0] $end
$var wire 32 ] mem11 [31:0] $end
$var wire 32 ^ mem10 [31:0] $end
$var wire 32 _ mem1 [31:0] $end
$var wire 32 ` mem0 [31:0] $end
$var reg 1 a clk_tb $end
$var reg 1 b rst_tb $end
$scope module main $end
$var wire 1 a clk $end
$var wire 1 b rst $end
$var wire 32 c writedataR [31:0] $end
$var wire 3 d tipo [2:0] $end
$var wire 5 e rs2 [4:0] $end
$var wire 5 f rs1 [4:0] $end
$var wire 1 g regiwrite $end
$var wire 32 h reg9 [31:0] $end
$var wire 32 i reg8 [31:0] $end
$var wire 32 j reg7 [31:0] $end
$var wire 32 k reg6 [31:0] $end
$var wire 32 l reg5 [31:0] $end
$var wire 32 m reg4 [31:0] $end
$var wire 32 n reg31 [31:0] $end
$var wire 32 o reg30 [31:0] $end
$var wire 32 p reg3 [31:0] $end
$var wire 32 q reg29 [31:0] $end
$var wire 32 r reg28 [31:0] $end
$var wire 32 s reg27 [31:0] $end
$var wire 32 t reg26 [31:0] $end
$var wire 32 u reg25 [31:0] $end
$var wire 32 v reg24 [31:0] $end
$var wire 32 w reg23 [31:0] $end
$var wire 32 x reg22 [31:0] $end
$var wire 32 y reg21 [31:0] $end
$var wire 32 z reg20 [31:0] $end
$var wire 32 { reg2 [31:0] $end
$var wire 32 | reg19 [31:0] $end
$var wire 32 } reg18 [31:0] $end
$var wire 32 ~ reg17 [31:0] $end
$var wire 32 !" reg16 [31:0] $end
$var wire 32 "" reg15 [31:0] $end
$var wire 32 #" reg14 [31:0] $end
$var wire 32 $" reg13 [31:0] $end
$var wire 32 %" reg12 [31:0] $end
$var wire 32 &" reg11 [31:0] $end
$var wire 32 '" reg10 [31:0] $end
$var wire 32 (" reg1 [31:0] $end
$var wire 32 )" reg0 [31:0] $end
$var wire 32 *" reddataM [31:0] $end
$var wire 32 +" readdata2R [31:0] $end
$var wire 32 ," readdata1R [31:0] $end
$var wire 5 -" rd [4:0] $end
$var wire 1 ." pcsrc $end
$var wire 7 /" opcode [6:0] $end
$var wire 1 0" negativo $end
$var wire 1 1" memwrite $end
$var wire 1 2" memtoreg $end
$var wire 1 3" memread $end
$var wire 32 4" mem9 [31:0] $end
$var wire 32 5" mem8 [31:0] $end
$var wire 32 6" mem7 [31:0] $end
$var wire 32 7" mem6 [31:0] $end
$var wire 32 8" mem5 [31:0] $end
$var wire 32 9" mem4 [31:0] $end
$var wire 32 :" mem31 [31:0] $end
$var wire 32 ;" mem30 [31:0] $end
$var wire 32 <" mem3 [31:0] $end
$var wire 32 =" mem29 [31:0] $end
$var wire 32 >" mem28 [31:0] $end
$var wire 32 ?" mem27 [31:0] $end
$var wire 32 @" mem26 [31:0] $end
$var wire 32 A" mem25 [31:0] $end
$var wire 32 B" mem24 [31:0] $end
$var wire 32 C" mem23 [31:0] $end
$var wire 32 D" mem22 [31:0] $end
$var wire 32 E" mem21 [31:0] $end
$var wire 32 F" mem20 [31:0] $end
$var wire 32 G" mem2 [31:0] $end
$var wire 32 H" mem19 [31:0] $end
$var wire 32 I" mem18 [31:0] $end
$var wire 32 J" mem17 [31:0] $end
$var wire 32 K" mem16 [31:0] $end
$var wire 32 L" mem15 [31:0] $end
$var wire 32 M" mem14 [31:0] $end
$var wire 32 N" mem13 [31:0] $end
$var wire 32 O" mem12 [31:0] $end
$var wire 32 P" mem11 [31:0] $end
$var wire 32 Q" mem10 [31:0] $end
$var wire 32 R" mem1 [31:0] $end
$var wire 32 S" mem0 [31:0] $end
$var wire 32 T" instrucao [31:0] $end
$var wire 12 U" immediate [11:0] $end
$var wire 7 V" funct7 [6:0] $end
$var wire 3 W" funct3 [2:0] $end
$var wire 1 X" branch $end
$var wire 1 Y" alusrc $end
$var wire 32 Z" aluresult2 [31:0] $end
$var wire 1 [" aluresult1 $end
$var wire 4 \" alucontrol [3:0] $end
$var wire 32 ]" PC [31:0] $end
$var reg 4 ^" estado [3:0] $end
$scope module alu $end
$var wire 1 a clk $end
$var wire 4 _" estado [3:0] $end
$var wire 1 ." pcsrc $end
$var wire 32 `" readdata2R [31:0] $end
$var wire 32 a" readdata1R [31:0] $end
$var wire 1 0" negativo $end
$var wire 12 b" immediate [11:0] $end
$var wire 1 X" branch $end
$var wire 1 Y" alusrc $end
$var wire 4 c" alucontrol [3:0] $end
$var reg 1 [" aluresult1 $end
$var reg 32 d" aluresult2 [31:0] $end
$upscope $end
$scope module decodificacao $end
$var wire 1 a clk $end
$var wire 4 e" estado [3:0] $end
$var wire 32 f" instrucao [31:0] $end
$var reg 3 g" funct3 [2:0] $end
$var reg 7 h" funct7 [6:0] $end
$var reg 12 i" immediate [11:0] $end
$var reg 1 0" negativo $end
$var reg 7 j" opcode [6:0] $end
$var reg 5 k" rd [4:0] $end
$var reg 5 l" rs1 [4:0] $end
$var reg 5 m" rs2 [4:0] $end
$var reg 3 n" tipo [2:0] $end
$upscope $end
$scope module lerinstrucao $end
$var wire 1 a clk $end
$var wire 4 o" estado [3:0] $end
$var wire 32 p" PC [31:0] $end
$var reg 32 q" instrucao [31:0] $end
$upscope $end
$scope module memoria $end
$var wire 32 r" aluresult2 [31:0] $end
$var wire 1 a clk $end
$var wire 4 s" estado [3:0] $end
$var wire 12 t" immediate [11:0] $end
$var wire 32 u" readdata2R [31:0] $end
$var wire 1 1" memwrite $end
$var wire 1 3" memread $end
$var reg 32 v" mem0 [31:0] $end
$var reg 32 w" mem1 [31:0] $end
$var reg 32 x" mem10 [31:0] $end
$var reg 32 y" mem11 [31:0] $end
$var reg 32 z" mem12 [31:0] $end
$var reg 32 {" mem13 [31:0] $end
$var reg 32 |" mem14 [31:0] $end
$var reg 32 }" mem15 [31:0] $end
$var reg 32 ~" mem16 [31:0] $end
$var reg 32 !# mem17 [31:0] $end
$var reg 32 "# mem18 [31:0] $end
$var reg 32 ## mem19 [31:0] $end
$var reg 32 $# mem2 [31:0] $end
$var reg 32 %# mem20 [31:0] $end
$var reg 32 &# mem21 [31:0] $end
$var reg 32 '# mem22 [31:0] $end
$var reg 32 (# mem23 [31:0] $end
$var reg 32 )# mem24 [31:0] $end
$var reg 32 *# mem25 [31:0] $end
$var reg 32 +# mem26 [31:0] $end
$var reg 32 ,# mem27 [31:0] $end
$var reg 32 -# mem28 [31:0] $end
$var reg 32 .# mem29 [31:0] $end
$var reg 32 /# mem3 [31:0] $end
$var reg 32 0# mem30 [31:0] $end
$var reg 32 1# mem31 [31:0] $end
$var reg 32 2# mem4 [31:0] $end
$var reg 32 3# mem5 [31:0] $end
$var reg 32 4# mem6 [31:0] $end
$var reg 32 5# mem7 [31:0] $end
$var reg 32 6# mem8 [31:0] $end
$var reg 32 7# mem9 [31:0] $end
$var reg 32 8# reddataM [31:0] $end
$var reg 32 9# writedataR [31:0] $end
$upscope $end
$scope module registradores $end
$var wire 1 a clk $end
$var wire 4 :# estado [3:0] $end
$var wire 5 ;# rd [4:0] $end
$var wire 32 <# readdata1R [31:0] $end
$var wire 32 =# readdata2R [31:0] $end
$var wire 32 ># reddataM [31:0] $end
$var wire 5 ?# rs1 [4:0] $end
$var wire 5 @# rs2 [4:0] $end
$var wire 32 A# writedataR [31:0] $end
$var wire 1 g regiwrite $end
$var wire 1 2" memtoreg $end
$var reg 32 B# reg0 [31:0] $end
$var reg 32 C# reg1 [31:0] $end
$var reg 32 D# reg10 [31:0] $end
$var reg 32 E# reg11 [31:0] $end
$var reg 32 F# reg12 [31:0] $end
$var reg 32 G# reg13 [31:0] $end
$var reg 32 H# reg14 [31:0] $end
$var reg 32 I# reg15 [31:0] $end
$var reg 32 J# reg16 [31:0] $end
$var reg 32 K# reg17 [31:0] $end
$var reg 32 L# reg18 [31:0] $end
$var reg 32 M# reg19 [31:0] $end
$var reg 32 N# reg2 [31:0] $end
$var reg 32 O# reg20 [31:0] $end
$var reg 32 P# reg21 [31:0] $end
$var reg 32 Q# reg22 [31:0] $end
$var reg 32 R# reg23 [31:0] $end
$var reg 32 S# reg24 [31:0] $end
$var reg 32 T# reg25 [31:0] $end
$var reg 32 U# reg26 [31:0] $end
$var reg 32 V# reg27 [31:0] $end
$var reg 32 W# reg28 [31:0] $end
$var reg 32 X# reg29 [31:0] $end
$var reg 32 Y# reg3 [31:0] $end
$var reg 32 Z# reg30 [31:0] $end
$var reg 32 [# reg31 [31:0] $end
$var reg 32 \# reg4 [31:0] $end
$var reg 32 ]# reg5 [31:0] $end
$var reg 32 ^# reg6 [31:0] $end
$var reg 32 _# reg7 [31:0] $end
$var reg 32 `# reg8 [31:0] $end
$var reg 32 a# reg9 [31:0] $end
$upscope $end
$scope module sinaisdecontrole $end
$var wire 1 a clk $end
$var wire 4 b# estado [3:0] $end
$var wire 3 c# funct3 [2:0] $end
$var wire 7 d# funct7 [6:0] $end
$var wire 3 e# tipo [2:0] $end
$var reg 4 f# alucontrol [3:0] $end
$var reg 2 g# aluop [1:0] $end
$var reg 1 Y" alusrc $end
$var reg 1 X" branch $end
$var reg 1 3" memread $end
$var reg 1 2" memtoreg $end
$var reg 1 1" memwrite $end
$var reg 1 g regiwrite $end
$upscope $end
$scope module somapc $end
$var wire 1 a clk $end
$var wire 4 h# estado [3:0] $end
$var wire 12 i# immediate [11:0] $end
$var wire 1 0" negativo $end
$var wire 1 ." pcsrc $end
$var reg 32 j# PC [31:0] $end
$upscope $end
$upscope $end
$upscope $end
$enddefinitions $end
#0
$dumpvars
b0 j#
bx i#
b0 h#
bx g#
bx f#
bx e#
bx d#
bx c#
b0 b#
b0 a#
b0 `#
b0 _#
b0 ^#
b0 ]#
b0 \#
b0 [#
b0 Z#
b0 Y#
b0 X#
b0 W#
b0 V#
b0 U#
b0 T#
b0 S#
b0 R#
b0 Q#
b0 P#
b0 O#
b0 N#
b0 M#
b0 L#
b0 K#
b0 J#
b0 I#
b0 H#
b0 G#
b0 F#
b0 E#
b0 D#
b0 C#
b0 B#
bx A#
bx @#
bx ?#
bx >#
bx =#
bx <#
bx ;#
b0 :#
bx 9#
bx 8#
b0 7#
b0 6#
b0 5#
b0 4#
b0 3#
b0 2#
b0 1#
b0 0#
b0 /#
b0 .#
b0 -#
b0 ,#
b0 +#
b0 *#
b0 )#
b0 (#
b0 '#
b0 &#
b0 %#
b0 $#
b0 ##
b0 "#
b0 !#
b0 ~"
b0 }"
b0 |"
b0 {"
b0 z"
b0 y"
b0 x"
b0 w"
b0 v"
bx u"
bx t"
b0 s"
bx r"
bx q"
b0 p"
b0 o"
bx n"
bx m"
bx l"
bx k"
bx j"
bx i"
bx h"
bx g"
bx f"
b0 e"
bx d"
bx c"
bx b"
bx a"
bx `"
b0 _"
b0 ^"
b0 ]"
bx \"
x["
bx Z"
xY"
xX"
bx W"
bx V"
bx U"
bx T"
b0 S"
b0 R"
b0 Q"
b0 P"
b0 O"
b0 N"
b0 M"
b0 L"
b0 K"
b0 J"
b0 I"
b0 H"
b0 G"
b0 F"
b0 E"
b0 D"
b0 C"
b0 B"
b0 A"
b0 @"
b0 ?"
b0 >"
b0 ="
b0 <"
b0 ;"
b0 :"
b0 9"
b0 8"
b0 7"
b0 6"
b0 5"
b0 4"
x3"
x2"
x1"
x0"
bx /"
x."
bx -"
bx ,"
bx +"
bx *"
b0 )"
b0 ("
b0 '"
b0 &"
b0 %"
b0 $"
b0 #"
b0 ""
b0 !"
b0 ~
b0 }
b0 |
b0 {
b0 z
b0 y
b0 x
b0 w
b0 v
b0 u
b0 t
b0 s
b0 r
b0 q
b0 p
b0 o
b0 n
b0 m
b0 l
b0 k
b0 j
b0 i
b0 h
xg
bx f
bx e
bx d
bx c
0b
0a
b0 `
b0 _
b0 ^
b0 ]
b0 \
b0 [
b0 Z
b0 Y
b0 X
b0 W
b0 V
b0 U
b0 T
b0 S
b0 R
b0 Q
b0 P
b0 O
b0 N
b0 M
b0 L
b0 K
b0 J
b0 I
b0 H
b0 G
b0 F
b0 E
b0 D
b0 C
b0 B
b0 A
b0 @
b0 ?
b0 >
b0 =
b0 <
b0 ;
b0 :
b0 9
b0 8
b0 7
b0 6
b0 5
b0 4
b0 3
b0 2
b0 1
b0 0
b0 /
b0 .
b0 -
b0 ,
b0 +
b0 *
b0 )
b0 (
b0 '
b0 &
b0 %
b0 $
b0 #
b0 "
b0 !
$end
#1
b11001000101000001010010011 T"
b11001000101000001010010011 f"
b11001000101000001010010011 q"
b1 ^"
b1 _"
b1 e"
b1 o"
b1 s"
b1 :#
b1 b#
b1 h#
1a
#2
0a
#3
b1 d
b1 n"
b1 e#
00"
b110010 U"
b110010 b"
b110010 i"
b110010 t"
b110010 i#
b0 W"
b0 g"
b0 c#
b0 ,"
b0 a"
b0 <#
b101 f
b101 l"
b101 ?#
b101 -"
b101 k"
b101 ;#
b10 ^"
b10 _"
b10 e"
b10 o"
b10 s"
b10 :#
b10 b#
b10 h#
1a
#4
0a
#5
0."
1Y"
02"
0X"
b11 \"
b11 c"
b11 f#
b101 ^"
b101 _"
b101 e"
b101 o"
b101 s"
b101 :#
b101 b#
b101 h#
1a
#6
0a
#7
0["
b110010 Z"
b110010 d"
b110010 r"
b1111 ^"
b1111 _"
b1111 e"
b1111 o"
b1111 s"
b1111 :#
b1111 b#
b1111 h#
1a
#8
0a
#9
03"
01"
1g
b11 ^"
b11 _"
b11 e"
b11 o"
b11 s"
b11 :#
b11 b#
b11 h#
1a
#10
0a
#11
b110010 c
b110010 9#
b110010 A#
b100 ^"
b100 _"
b100 e"
b100 o"
b100 s"
b100 :#
b100 b#
b100 h#
1a
#12
0a
#13
b110 ^"
b110 _"
b110 e"
b110 o"
b110 s"
b110 :#
b110 b#
b110 h#
1a
#14
0a
#15
b110010 ,"
b110010 a"
b110010 <#
b111 ^"
b111 _"
b111 e"
b111 o"
b111 s"
b111 :#
b111 b#
b111 h#
1a
#16
0a
#17
b110010 %
b110010 l
b110010 ]#
b1000 ^"
b1000 _"
b1000 e"
b1000 o"
b1000 s"
b1000 :#
b1000 b#
b1000 h#
1a
#18
0a
#19
b1 ]"
b1 p"
b1 j#
b0 ^"
b0 _"
b0 e"
b0 o"
b0 s"
b0 :#
b0 b#
b0 h#
1a
#20
0a
#21
b1010000100000001000010011 T"
b1010000100000001000010011 f"
b1010000100000001000010011 q"
b1 ^"
b1 _"
b1 e"
b1 o"
b1 s"
b1 :#
b1 b#
b1 h#
1a
#22
0a
#23
b10100 U"
b10100 b"
b10100 i"
b10100 t"
b10100 i#
b0 ,"
b0 a"
b0 <#
b100 f
b100 l"
b100 ?#
b100 -"
b100 k"
b100 ;#
b10 ^"
b10 _"
b10 e"
b10 o"
b10 s"
b10 :#
b10 b#
b10 h#
1a
#24
0a
#25
x3"
x1"
xg
b101 ^"
b101 _"
b101 e"
b101 o"
b101 s"
b101 :#
b101 b#
b101 h#
1a
#26
0a
#27
b10100 Z"
b10100 d"
b10100 r"
b1111 ^"
b1111 _"
b1111 e"
b1111 o"
b1111 s"
b1111 :#
b1111 b#
b1111 h#
1a
#28
0a
#29
03"
01"
1g
b11 ^"
b11 _"
b11 e"
b11 o"
b11 s"
b11 :#
b11 b#
b11 h#
1a
#30
0a
#31
b10100 c
b10100 9#
b10100 A#
b100 ^"
b100 _"
b100 e"
b100 o"
b100 s"
b100 :#
b100 b#
b100 h#
1a
#32
0a
#33
b110 ^"
b110 _"
b110 e"
b110 o"
b110 s"
b110 :#
b110 b#
b110 h#
1a
#34
0a
#35
b10100 ,"
b10100 a"
b10100 <#
b111 ^"
b111 _"
b111 e"
b111 o"
b111 s"
b111 :#
b111 b#
b111 h#
1a
#36
0a
#37
b10100 &
b10100 m
b10100 \#
b1000 ^"
b1000 _"
b1000 e"
b1000 o"
b1000 s"
b1000 :#
b1000 b#
b1000 h#
1a
#38
0a
#39
b10 ]"
b10 p"
b10 j#
b0 ^"
b0 _"
b0 e"
b0 o"
b0 s"
b0 :#
b0 b#
b0 h#
1a
#40
0a
#41
b101000000000000100010011 T"
b101000000000000100010011 f"
b101000000000000100010011 q"
b1 ^"
b1 _"
b1 e"
b1 o"
b1 s"
b1 :#
b1 b#
b1 h#
1a
#42
0a
#43
b1010 U"
b1010 b"
b1010 i"
b1010 t"
b1010 i#
b0 ,"
b0 a"
b0 <#
b0 f
b0 l"
b0 ?#
b10 -"
b10 k"
b10 ;#
b10 ^"
b10 _"
b10 e"
b10 o"
b10 s"
b10 :#
b10 b#
b10 h#
1a
#44
0a
#45
x3"
x1"
xg
b101 ^"
b101 _"
b101 e"
b101 o"
b101 s"
b101 :#
b101 b#
b101 h#
1a
#46
0a
#47
b1010 Z"
b1010 d"
b1010 r"
b1111 ^"
b1111 _"
b1111 e"
b1111 o"
b1111 s"
b1111 :#
b1111 b#
b1111 h#
1a
#48
0a
#49
03"
01"
1g
b11 ^"
b11 _"
b11 e"
b11 o"
b11 s"
b11 :#
b11 b#
b11 h#
1a
#50
0a
#51
b1010 c
b1010 9#
b1010 A#
b100 ^"
b100 _"
b100 e"
b100 o"
b100 s"
b100 :#
b100 b#
b100 h#
1a
#52
0a
#53
b110 ^"
b110 _"
b110 e"
b110 o"
b110 s"
b110 :#
b110 b#
b110 h#
1a
#54
0a
#55
b111 ^"
b111 _"
b111 e"
b111 o"
b111 s"
b111 :#
b111 b#
b111 h#
1a
#56
0a
#57
b1010 4
b1010 {
b1010 N#
b1000 ^"
b1000 _"
b1000 e"
b1000 o"
b1000 s"
b1000 :#
b1000 b#
b1000 h#
1a
#58
0a
#59
b11 ]"
b11 p"
b11 j#
b0 ^"
b0 _"
b0 e"
b0 o"
b0 s"
b0 :#
b0 b#
b0 h#
1a
#60
0a
#61
b10000101101010000110011 T"
b10000101101010000110011 f"
b10000101101010000110011 q"
b1 ^"
b1 _"
b1 e"
b1 o"
b1 s"
b1 :#
b1 b#
b1 h#
1a
#62
0a
#63
b11 d
b11 n"
b11 e#
b101 W"
b101 g"
b101 c#
b1000 -"
b1000 k"
b1000 ;#
b110010 ,"
b110010 a"
b110010 <#
b101 f
b101 l"
b101 ?#
b10100 +"
b10100 `"
b10100 u"
b10100 =#
b100 e
b100 m"
b100 @#
b0 V"
b0 h"
b0 d#
b10 ^"
b10 _"
b10 e"
b10 o"
b10 s"
b10 :#
b10 b#
b10 h#
1a
#64
0a
#65
0Y"
b101 \"
b101 c"
b101 f#
x3"
x1"
xg
b101 ^"
b101 _"
b101 e"
b101 o"
b101 s"
b101 :#
b101 b#
b101 h#
1a
#66
0a
#67
b0 Z"
b0 d"
b0 r"
b1111 ^"
b1111 _"
b1111 e"
b1111 o"
b1111 s"
b1111 :#
b1111 b#
b1111 h#
1a
#68
0a
#69
03"
01"
1g
b11 ^"
b11 _"
b11 e"
b11 o"
b11 s"
b11 :#
b11 b#
b11 h#
1a
#70
0a
#71
b0 c
b0 9#
b0 A#
b100 ^"
b100 _"
b100 e"
b100 o"
b100 s"
b100 :#
b100 b#
b100 h#
1a
#72
0a
#73
b110 ^"
b110 _"
b110 e"
b110 o"
b110 s"
b110 :#
b110 b#
b110 h#
1a
#74
0a
#75
b111 ^"
b111 _"
b111 e"
b111 o"
b111 s"
b111 :#
b111 b#
b111 h#
1a
#76
0a
#77
b1000 ^"
b1000 _"
b1000 e"
b1000 o"
b1000 s"
b1000 :#
b1000 b#
b1000 h#
1a
#78
0a
#79
b100 ]"
b100 p"
b100 j#
b0 ^"
b0 _"
b0 e"
b0 o"
b0 s"
b0 :#
b0 b#
b0 h#
1a
#80
0a
#81
b1000101111001100110011 T"
b1000101111001100110011 f"
b1000101111001100110011 q"
b1 ^"
b1 _"
b1 e"
b1 o"
b1 s"
b1 :#
b1 b#
b1 h#
1a
#82
0a
#83
b111 W"
b111 g"
b111 c#
b110 -"
b110 k"
b110 ;#
b1010 +"
b1010 `"
b1010 u"
b1010 =#
b10 e
b10 m"
b10 @#
b10 ^"
b10 _"
b10 e"
b10 o"
b10 s"
b10 :#
b10 b#
b10 h#
1a
#84
0a
#85
b0 \"
b0 c"
b0 f#
x3"
x1"
xg
b101 ^"
b101 _"
b101 e"
b101 o"
b101 s"
b101 :#
b101 b#
b101 h#
1a
#86
0a
#87
b10 Z"
b10 d"
b10 r"
b1111 ^"
b1111 _"
b1111 e"
b1111 o"
b1111 s"
b1111 :#
b1111 b#
b1111 h#
1a
#88
0a
#89
03"
01"
1g
b11 ^"
b11 _"
b11 e"
b11 o"
b11 s"
b11 :#
b11 b#
b11 h#
1a
#90
0a
#91
b10 c
b10 9#
b10 A#
b100 ^"
b100 _"
b100 e"
b100 o"
b100 s"
b100 :#
b100 b#
b100 h#
1a
#92
0a
#93
b110 ^"
b110 _"
b110 e"
b110 o"
b110 s"
b110 :#
b110 b#
b110 h#
1a
#94
0a
#95
b111 ^"
b111 _"
b111 e"
b111 o"
b111 s"
b111 :#
b111 b#
b111 h#
1a
#96
0a
#97
b10 $
b10 k
b10 ^#
b1000 ^"
b1000 _"
b1000 e"
b1000 o"
b1000 s"
b1000 :#
b1000 b#
b1000 h#
1a
#98
0a
#99
b101 ]"
b101 p"
b101 j#
b0 ^"
b0 _"
b0 e"
b0 o"
b0 s"
b0 :#
b0 b#
b0 h#
1a
#100
0a
#101
b10100100110001110110011 T"
b10100100110001110110011 f"
b10100100110001110110011 q"
b1 ^"
b1 _"
b1 e"
b1 o"
b1 s"
b1 :#
b1 b#
b1 h#
1a
#102
0a
#103
b110 W"
b110 g"
b110 c#
b111 -"
b111 k"
b111 ;#
b10100 ,"
b10100 a"
b10100 <#
b100 f
b100 l"
b100 ?#
b110010 +"
b110010 `"
b110010 u"
b110010 =#
b101 e
b101 m"
b101 @#
b10 ^"
b10 _"
b10 e"
b10 o"
b10 s"
b10 :#
b10 b#
b10 h#
1a
#104
0a
#105
b1 \"
b1 c"
b1 f#
x3"
x1"
xg
b101 ^"
b101 _"
b101 e"
b101 o"
b101 s"
b101 :#
b101 b#
b101 h#
1a
#106
0a
#107
b110110 Z"
b110110 d"
b110110 r"
b1111 ^"
b1111 _"
b1111 e"
b1111 o"
b1111 s"
b1111 :#
b1111 b#
b1111 h#
1a
#108
0a
#109
03"
01"
1g
b11 ^"
b11 _"
b11 e"
b11 o"
b11 s"
b11 :#
b11 b#
b11 h#
1a
#110
0a
#111
b110110 c
b110110 9#
b110110 A#
b100 ^"
b100 _"
b100 e"
b100 o"
b100 s"
b100 :#
b100 b#
b100 h#
1a
#112
0a
#113
b110 ^"
b110 _"
b110 e"
b110 o"
b110 s"
b110 :#
b110 b#
b110 h#
1a
#114
0a
#115
b111 ^"
b111 _"
b111 e"
b111 o"
b111 s"
b111 :#
b111 b#
b111 h#
1a
#116
0a
#117
b110110 #
b110110 j
b110110 _#
b1000 ^"
b1000 _"
b1000 e"
b1000 o"
b1000 s"
b1000 :#
b1000 b#
b1000 h#
1a
#118
0a
#119
b110 ]"
b110 p"
b110 j#
b0 ^"
b0 _"
b0 e"
b0 o"
b0 s"
b0 :#
b0 b#
b0 h#
1a
#120
0a
#121
b10101010000010100010011 T"
b10101010000010100010011 f"
b10101010000010100010011 q"
b1 ^"
b1 _"
b1 e"
b1 o"
b1 s"
b1 :#
b1 b#
b1 h#
1a
#122
0a
#123
b1 d
b1 n"
b1 e#
b101 U"
b101 b"
b101 i"
b101 t"
b101 i#
b0 W"
b0 g"
b0 c#
b0 ,"
b0 a"
b0 <#
b1010 f
b1010 l"
b1010 ?#
b1010 -"
b1010 k"
b1010 ;#
b10 ^"
b10 _"
b10 e"
b10 o"
b10 s"
b10 :#
b10 b#
b10 h#
1a
#124
0a
#125
1Y"
b11 \"
b11 c"
b11 f#
x3"
x1"
xg
b101 ^"
b101 _"
b101 e"
b101 o"
b101 s"
b101 :#
b101 b#
b101 h#
1a
#126
0a
#127
b101 Z"
b101 d"
b101 r"
b1111 ^"
b1111 _"
b1111 e"
b1111 o"
b1111 s"
b1111 :#
b1111 b#
b1111 h#
1a
#128
0a
#129
03"
01"
1g
b11 ^"
b11 _"
b11 e"
b11 o"
b11 s"
b11 :#
b11 b#
b11 h#
1a
#130
0a
#131
b101 c
b101 9#
b101 A#
b100 ^"
b100 _"
b100 e"
b100 o"
b100 s"
b100 :#
b100 b#
b100 h#
1a
#132
0a
#133
b110 ^"
b110 _"
b110 e"
b110 o"
b110 s"
b110 :#
b110 b#
b110 h#
1a
#134
0a
#135
b101 ,"
b101 a"
b101 <#
b111 ^"
b111 _"
b111 e"
b111 o"
b111 s"
b111 :#
b111 b#
b111 h#
1a
#136
0a
#137
b101 >
b101 '"
b101 D#
b1000 ^"
b1000 _"
b1000 e"
b1000 o"
b1000 s"
b1000 :#
b1000 b#
b1000 h#
1a
#138
0a
#139
b111 ]"
b111 p"
b111 j#
b0 ^"
b0 _"
b0 e"
b0 o"
b0 s"
b0 :#
b0 b#
b0 h#
1a
#140
0a
#141
b11100000010000000100011 T"
b11100000010000000100011 f"
b11100000010000000100011 q"
b1 ^"
b1 _"
b1 e"
b1 o"
b1 s"
b1 :#
b1 b#
b1 h#
1a
#142
0a
#143
b10 d
b10 n"
b10 e#
b10 W"
b10 g"
b10 c#
b110110 +"
b110110 `"
b110110 u"
b110110 =#
b111 e
b111 m"
b111 @#
b0 ,"
b0 a"
b0 <#
b0 f
b0 l"
b0 ?#
b0 U"
b0 b"
b0 i"
b0 t"
b0 i#
b10 ^"
b10 _"
b10 e"
b10 o"
b10 s"
b10 :#
b10 b#
b10 h#
1a
#144
0a
#145
12"
b10 \"
b10 c"
b10 f#
x3"
x1"
xg
b101 ^"
b101 _"
b101 e"
b101 o"
b101 s"
b101 :#
b101 b#
b101 h#
1a
#146
0a
#147
b0 Z"
b0 d"
b0 r"
b1111 ^"
b1111 _"
b1111 e"
b1111 o"
b1111 s"
b1111 :#
b1111 b#
b1111 h#
1a
#148
0a
#149
03"
11"
0g
b11 ^"
b11 _"
b11 e"
b11 o"
b11 s"
b11 :#
b11 b#
b11 h#
1a
#150
0a
#151
b0 c
b0 9#
b0 A#
b100 ^"
b100 _"
b100 e"
b100 o"
b100 s"
b100 :#
b100 b#
b100 h#
1a
#152
0a
#153
b110 ^"
b110 _"
b110 e"
b110 o"
b110 s"
b110 :#
b110 b#
b110 h#
1a
#154
0a
#155
b110110 `
b110110 S"
b110110 v"
b111 ^"
b111 _"
b111 e"
b111 o"
b111 s"
b111 :#
b111 b#
b111 h#
1a
#156
0a
#157
b1000 ^"
b1000 _"
b1000 e"
b1000 o"
b1000 s"
b1000 :#
b1000 b#
b1000 h#
1a
#158
0a
#159
b1000 ]"
b1000 p"
b1000 j#
b0 ^"
b0 _"
b0 e"
b0 o"
b0 s"
b0 :#
b0 b#
b0 h#
1a
#160
0a
#161
b10010000000011 T"
b10010000000011 f"
b10010000000011 q"
b1 ^"
b1 _"
b1 e"
b1 o"
b1 s"
b1 :#
b1 b#
b1 h#
1a
#162
0a
#163
b0 d
b0 n"
b0 e#
b1000 -"
b1000 k"
b1000 ;#
b10 ^"
b10 _"
b10 e"
b10 o"
b10 s"
b10 :#
b10 b#
b10 h#
1a
#164
0a
#165
x3"
x1"
xg
b101 ^"
b101 _"
b101 e"
b101 o"
b101 s"
b101 :#
b101 b#
b101 h#
1a
#166
0a
